<svg width="50" height="50" viewBox="0 0 50 50" fill="none" xmlns="http://www.w3.org/2000/svg">
<path d="M41.6666 16.6665H35.4166V8.33313H6.24998C3.95831 8.33313 2.08331 10.2081 2.08331 12.4998V35.4165H6.24998C6.24998 38.8748 9.04165 41.6665 12.5 41.6665C15.9583 41.6665 18.75 38.8748 18.75 35.4165H31.25C31.25 38.8748 34.0416 41.6665 37.5 41.6665C40.9583 41.6665 43.75 38.8748 43.75 35.4165H47.9166V24.9998L41.6666 16.6665ZM12.5 38.5415C10.7708 38.5415 9.37498 37.1456 9.37498 35.4165C9.37498 33.6873 10.7708 32.2915 12.5 32.2915C14.2291 32.2915 15.625 33.6873 15.625 35.4165C15.625 37.1456 14.2291 38.5415 12.5 38.5415ZM40.625 19.7915L44.7083 24.9998H35.4166V19.7915H40.625ZM37.5 38.5415C35.7708 38.5415 34.375 37.1456 34.375 35.4165C34.375 33.6873 35.7708 32.2915 37.5 32.2915C39.2291 32.2915 40.625 33.6873 40.625 35.4165C40.625 37.1456 39.2291 38.5415 37.5 38.5415Z" fill="#3D464C"/>
</svg>
