<svg width="50" height="50" viewBox="0 0 50 50" fill="none" xmlns="http://www.w3.org/2000/svg">
<path d="M25 4.16687C16.9375 4.16687 10.4167 10.6877 10.4167 18.7502C10.4167 29.6877 25 45.8335 25 45.8335C25 45.8335 39.5834 29.6877 39.5834 18.7502C39.5834 10.6877 33.0625 4.16687 25 4.16687ZM25 23.9585C22.125 23.9585 19.7917 21.6252 19.7917 18.7502C19.7917 15.8752 22.125 13.5419 25 13.5419C27.875 13.5419 30.2084 15.8752 30.2084 18.7502C30.2084 21.6252 27.875 23.9585 25 23.9585Z" fill="#3D464C"/>
</svg>
