<?xml version="1.0" encoding="UTF-8"?>
<svg width="134px" height="123px" viewBox="0 0 134 123" version="1.1" xmlns="http://www.w3.org/2000/svg" xmlns:xlink="http://www.w3.org/1999/xlink">
    <!-- Generator: sketchtool 55.2 (78181) - https://sketchapp.com -->
    <title>9BD05263-F823-4925-86B8-332DCDAA3540</title>
    <desc>Created with sketchtool.</desc>
    <defs>
        <polygon id="path-1" points="0.00955335306 0.00134739696 102.919623 0.00134739696 102.919623 122.999947 0.00955335306 122.999947"></polygon>
    </defs>
    <g id="dashboard" stroke="none" stroke-width="1" fill="none" fill-rule="evenodd">
        <g transform="translate(-92.000000, -1129.000000)" id="today-revenue">
            <g transform="translate(92.000000, 1129.000000)">
                <path d="M32.1914381,85.3285838 C32.1914381,85.862811 32.2052677,86.3975725 32.1873705,86.9309983 C32.1702868,87.4382471 32.388036,87.661287 32.9103085,87.6534817 C33.8816378,87.6380481 34.8535094,87.6556776 35.8251099,87.6522051 C36.6982758,87.6492669 36.7706781,87.5915703 36.7601025,86.749094 C36.7362395,84.8833053 36.682548,83.0185852 36.7487133,81.1509268 C36.7714916,80.509587 36.9171096,80.2034748 37.6373359,80.1198682 C38.9853197,79.9636067 40.2798831,79.5607994 41.5343133,79.0311131 C44.1399814,77.9303379 46.2231058,76.3012119 47.3487306,73.6474381 C49.0554717,69.6244399 48.1389186,64.2741541 43.5040889,61.6796796 C40.9982112,60.2767989 38.2743132,59.4970942 35.5580079,58.6631655 C33.5106779,58.03438 31.4302652,57.4672978 29.6725442,56.1760706 C28.3440847,55.2003045 27.7887294,53.8791606 27.9874967,52.2641917 C28.1724343,50.7592735 29.1670842,49.9037086 30.5104581,49.3999323 C32.5108758,48.6498773 34.5731201,48.6723148 36.6516346,49.0235692 C39.4444097,49.4958261 42.0457391,50.4838794 44.4949424,51.8664595 C44.9599981,52.128765 45.1856112,52.0098995 45.3846496,51.580915 C45.8827881,50.5089881 46.4015354,49.4458759 46.8994027,48.3736818 C47.651627,46.7541719 47.6418649,46.7621853 45.9966793,45.912764 C43.3031522,44.5224377 40.433365,43.7034673 37.427993,43.3217619 C37.0789978,43.2774211 36.7991509,43.1916776 36.7771861,42.7920756 C36.7335278,41.9934059 36.5700126,41.1960718 36.6787516,40.3955323 C36.8262678,39.3075785 36.7191559,38.2164194 36.7671529,37.1281985 C36.7934563,36.5341378 36.5133382,36.3487609 35.9490344,36.3637193 C34.9782474,36.3893622 34.0050199,36.400581 33.0347753,36.365322 C32.3731217,36.3412818 32.1724562,36.6126692 32.1795066,37.2355782 C32.1979461,38.9007645 32.2887879,40.5648823 32.1990308,42.2322055 C32.1442546,43.246703 32.1903534,43.2670037 31.2016693,43.4288745 C29.3360228,43.7344525 27.5598624,44.2943226 25.9049147,45.1998378 C21.2389004,47.7526426 19.984199,53.080758 21.9002829,57.3844926 C23.0112645,59.879868 25.1933658,61.2143677 27.5959279,62.2491658 C29.7530816,63.178187 32.0382273,63.7423309 34.2889345,64.4026358 C36.0211655,64.910953 37.7569217,65.4350299 39.2548622,66.4845193 C40.601219,67.4279646 41.4903839,68.6609611 41.345037,70.3587353 C41.186674,72.2079628 40.0952166,73.4163848 38.3681378,74.0670736 C36.0813651,74.9282479 33.7268,74.9239741 31.3670827,74.4562582 C27.8101518,73.7510782 24.7003796,72.1417187 21.9770239,69.7969953 C21.6513493,69.5162589 21.4452604,69.5261421 21.2530012,69.9145253 C20.5593496,71.3139336 19.8589186,72.7098693 19.1611994,74.1074078 C18.9618898,74.5067426 19.0567991,74.8064441 19.4150141,75.0941255 C22.9131011,77.9054963 26.8588891,79.6903495 31.3716926,80.1775647 C31.9430468,80.2390009 32.1632364,80.4721911 32.2077082,81.0654504 C32.3148202,82.4902344 32.1610671,83.9080735 32.1914381,85.3285838 M33.54132,94.9988981 C15.1519578,95.1479475 -0.135224947,80.1572641 0.000902161578,61.7360405 C0.132690557,43.8530509 15.0798267,29.0835377 33.2243228,29.0003646 C51.9000401,28.9152561 67.0654677,43.7395276 66.9997875,62.1233553 C66.9342217,80.387516 51.9285129,95.0290819 33.54132,94.9988981" id="Fill-1" fill="#2EB855"></path>
                <g id="Group-5" transform="translate(31.000000, 0.000000)">
                    <mask id="mask-2" fill="white">
                        <use xlink:href="#path-1"></use>
                    </mask>
                    <g id="Clip-4"></g>
                    <path d="M102.90887,52.2501332 C102.90887,65.8564412 102.904878,79.4627492 102.919785,93.0690573 C102.919785,93.8244 102.719904,94.3980443 102.211291,94.9844954 C97.8797023,99.9794694 93.5856403,105.006728 89.2798677,110.024114 C85.7398083,114.149016 82.196555,118.270984 78.6636817,122.402289 C78.3033147,122.824118 77.9014284,122.999947 77.3393199,122.999947 C55.0732217,122.988207 32.8065912,123.022359 10.5407592,122.953521 C7.16065581,122.943116 4.36501757,121.329441 2.28479018,118.622908 C0.672986563,116.525237 -0.0365689922,114.144747 0.0118702842,111.473699 C0.0871906977,107.31758 0.0312992248,103.159059 0.0347591731,99.0016061 C0.0355576227,98.0949813 0.193650646,97.9663783 1.10414935,98.0699011 C2.91929147,98.2766798 4.73097364,98.2401267 6.53919587,97.9858555 C7.43106408,97.8601874 7.62003049,98.0152048 7.62082894,98.9130247 C7.62482119,103.203884 7.61763514,107.49501 7.62588579,111.785869 C7.62907959,113.394207 8.46479018,114.590856 9.89747494,115.134083 C10.2424052,115.264554 10.5910615,115.266955 10.9447747,115.266955 C30.5275499,115.267489 50.1103251,115.267489 69.6928341,115.267756 C70.3805654,115.267756 71.0693612,115.240541 71.7549633,115.277361 C72.3596558,115.309645 72.5792295,115.082322 72.5709788,114.46999 C72.5440977,112.469439 72.5600667,110.468354 72.5600667,108.46727 C72.560599,105.732721 72.5547437,102.998172 72.5635266,100.263623 C72.5797618,95.2990659 75.5252424,91.1360095 80.209214,89.4972547 C81.2786041,89.1229184 82.4030873,88.9660334 83.5411442,88.965233 C87.1559917,88.9628317 90.7713716,88.9644325 94.3862191,88.9625649 C95.3049685,88.9620312 95.3169452,88.9500247 95.3169452,88.0316603 C95.3177437,62.5533176 95.3190744,37.074708 95.3124207,11.5960985 C95.3121545,10.2780508 94.9557798,9.09687722 93.8025525,8.28470369 C93.2151597,7.87087939 92.5822553,7.7171961 91.8663121,7.71772972 C78.1606584,7.72706811 64.4550047,7.72333275 50.7490848,7.72279913 C37.6422682,7.72253232 24.5351855,7.76575575 11.4286351,7.68571236 C8.89542067,7.67023731 7.55136382,9.55232408 7.5950124,11.5211245 C7.68656796,15.654298 7.62535349,19.7909401 7.62269199,23.9262482 C7.62189354,25.0212416 7.45501757,25.1581158 6.3552863,24.9964282 C4.59124496,24.7373544 2.82480827,24.7216126 1.05437933,24.9286581 C0.194981395,25.029246 0.0352914729,24.8862351 0.035025323,24.0092265 C0.0339607235,19.3624412 -0.0166077519,14.7151223 0.0632372093,10.0696711 C0.100498191,7.89809414 1.02270749,5.97438482 2.36357054,4.28600304 C4.65086253,1.40577527 7.66846977,0.0044824295 11.3280305,0.00394880694 C38.0963199,-5.3362256e-05 64.8646093,0.00134739696 91.6326326,0.00134739696 C96.6099013,0.00134739696 100.902366,3.12430672 102.417558,7.87861692 C102.797353,9.06966247 102.903015,10.3167384 102.903281,11.5643479 C102.908072,25.1263653 102.906209,38.6881158 102.906209,52.2501332 L102.90887,52.2501332 Z" id="Fill-3" fill="#676767" mask="url(#mask-2)"></path>
                </g>
                <path d="M75.0230832,101.99935 C67.7514019,101.998505 60.4799811,101.998786 53.2085603,101.998223 C52.0523771,101.997941 52,101.939358 52,100.68657 C52.0007827,98.1762055 52,95.6658414 52.0041702,93.1554773 C52.0057337,92.1268842 52.1136128,92.0038023 53.0389242,92.0035206 C67.6906873,92.0007041 82.3421897,91.9995775 96.9936922,92.0001408 C97.9296873,92.0001408 97.9966557,92.0744969 97.997698,93.0785863 C98.0005644,95.7063993 98.0005644,98.3339306 97.9987404,100.961744 C97.9979586,101.930063 97.9335959,101.999068 97.0330394,101.99935 C89.6964742,102.000476 82.3596484,102 75.0230832,101.99935" id="Fill-6" fill="#676767"></path>
                <path d="M87.8922121,84.9960477 C80.0174835,84.995484 72.1427549,84.995484 64.2680263,84.995484 C64.1114342,84.995484 63.9537677,85.0073218 63.79825,84.9926655 C63.5226695,84.966735 63.1608692,85.1048429 63.0257649,84.7451988 C62.9116112,84.4407979 63.2046505,84.2466013 63.3598996,84.0259107 C65.0939623,81.5591356 66.5161837,78.906056 67.6445599,76.0804824 C68.058468,75.0435462 68.091774,75.0007046 69.1728772,75.0007046 C83.3564135,74.9998591 97.5399499,74.9995772 111.723486,75.0009865 C112.907999,75.0009865 112.996905,75.0934342 112.998248,76.3039916 C113,78.7924693 113.000665,81.280947 112.998516,83.7691428 C112.997442,84.9906925 112.99395,84.995484 111.852144,84.9957659 C103.865679,84.9971751 95.8786771,84.9966114 87.8922121,84.9960477" id="Fill-8" fill="#676767"></path>
                <path d="M119,22.4292993 C118.719279,23.0434376 118.436699,23.6832853 118.137121,24.3150004 C116.279369,28.2320015 114.419227,32.1474285 112.556164,36.0618061 C112.294033,36.6129828 112.087675,36.6413155 111.724093,36.147329 C110.982851,35.1404674 110.27162,34.1115693 109.533565,33.1023467 C109.028692,32.4118674 108.95911,32.3961269 108.267001,32.8764718 C104.213144,35.688496 100.165662,38.5086528 96.1149925,41.3248745 C92.5344046,43.8147451 88.9503642,46.3001558 85.3742913,48.7968472 C84.9878683,49.0667952 84.6744806,49.0796499 84.3106321,48.7632676 C81.4256057,46.2529346 78.533143,43.7502094 75.6414771,41.2472219 C73.9297957,39.7657869 72.2053663,38.298256 70.5090887,36.7995067 C70.1271806,36.4621372 69.8411479,36.5001765 69.4677384,36.7716986 C68.060415,37.7945629 66.63875,38.7980141 65.2274428,39.8151069 C64.458315,40.3694317 64.3388027,40.3723174 63.8041844,39.6283207 C63.0470078,38.5745002 62.1650071,37.6256158 61.3000038,36.6630898 C60.9393424,36.2619717 60.8392176,35.9841534 61.3653372,35.6155655 C64.2147755,33.6183698 67.0472165,31.5975635 69.879923,29.5772819 C70.2002159,29.3490459 70.4636741,29.3409134 70.7661729,29.6048276 C73.0013181,31.5563761 75.2396502,33.5047765 77.4838252,35.4460937 C79.8942551,37.5314357 82.3153082,39.6044477 84.7233478,41.6924131 C85.0773697,41.9990888 85.3854458,41.9518675 85.7341561,41.7089405 C89.0247274,39.4200226 92.3174235,37.1345151 95.6101195,34.8484828 C98.3782894,32.9265788 101.147787,31.0062487 103.91516,29.0827706 C104.348857,28.7813418 104.759714,28.4455464 105.206159,28.16458 C105.655259,27.8817773 105.654994,27.5929408 105.361259,27.1936591 C104.634093,26.2035873 103.925518,25.2001362 103.221458,24.1937993 C103.07884,23.989961 102.818834,23.7837616 102.988276,23.4964991 C103.132753,23.2519981 103.421707,23.3333235 103.657014,23.3118116 C106.362241,23.0646872 109.067467,22.8141523 111.773491,22.5735864 C113.951536,22.3799794 116.130377,22.1929308 118.310016,22.0176876 C118.594455,21.994864 118.968661,21.9187853 119,22.4292993" id="Fill-10" fill="#2EB855"></path>
                <path d="M92.5770269,57 C99.3357623,57 106.094227,56.9997603 112.852963,57.0006165 C113.983339,57.0006165 113.997398,57.0168839 113.998209,58.1824325 C113.99956,60.7983528 114.001453,63.4145586 113.998209,66.0304789 C113.997398,66.9220494 113.9244,66.9985349 113.062492,66.9988203 C99.3646908,67.0005327 85.6671601,67.0002473 71.9696294,66.9988203 C71.0628412,66.9988203 70.9825442,66.9351775 71.0268833,65.985672 C71.0696002,65.0615667 71.1896402,64.1417422 71.258582,63.218493 C71.3640225,61.8129281 71.2036989,60.4179228 71.0841997,59.0220613 C71.070141,58.8562475 71.0404013,58.692146 71.0306684,58.5263321 C70.9425309,57.0143154 70.9525343,57.0034704 72.3684108,57.003185 L92.5770269,57.003185 L92.5770269,57 Z" id="Fill-12" fill="#676767"></path>
            </g>
        </g>
    </g>
</svg>